{
    "chipsName": "IBM80486",
    "chipsBatch": "T053MR18",
    "generator": [
        {
            "duration": "120000",
            "enable": true,
            "type": "triangle",
            "amplitude": 5.2,
            "frequency": 44100,
            "dutycycle": 4.22,
            "pollInterval": 1000
        },
        {
            "duration": "10000",
            "enable": false
        },
        {
            "duration": "130000",
            "enable": true,
            "type": "square",
            "amplitude": 3.1,
            "frequency": 42000,
            "dutycycle": 4.22,
            "pollInterval": 4000
        },
        {
            "duration": 0,
            "enable": false
        }
    ],
    "thermocouple": [
        {
            "duration": "180000",
            "enable": true,
            "temperatureMax": 2500.77,
            "pollInterval": 1000
        },
        {
            "duration": 0,
            "enable": false
        }
    ]
}