{
    "thermoProfile": [
        {
            "duration": "1800000",
            "enable": true,
            "maxTemperatureChangeRate": 0,
            "temperature": 100,
            "type": "heating"
        },
        {
            "duration": "18000000",
            "enable": true,
            "temperature": 100,
            "type": "maintaining"
        },
        {
            "duration": "3600000",
            "enable": true,
            "maxTemperatureChangeRate": 0,
            "temperature": 25,
            "type": "cooling"
        },
        {
            "duration": "0",
            "enable": false
        }
    ]
}
